simulation/qsim/display.msim.vcd
$comment
	File created using the following command:
		vcd file display.msim.vcd -direction
$end
$date
	Sat Oct 20 17:15:39 2018
$end
$version
	ModelSim Version 10.1d
$end
$timescale
	1ps
$end
$scope module lcd_example_vlg_vec_tst $end
$var reg 1 ! clk $end
$var reg 1 " reset $end
$var wire 1 # e $end
$var wire 1 $ lcd_blon $end
$var wire 1 % lcd_data [7] $end
$var wire 1 & lcd_data [6] $end
$var wire 1 ' lcd_data [5] $end
$var wire 1 ( lcd_data [4] $end
$var wire 1 ) lcd_data [3] $end
$var wire 1 * lcd_data [2] $end
$var wire 1 + lcd_data [1] $end
$var wire 1 , lcd_data [0] $end
$var wire 1 - lcd_on $end
$var wire 1 . ledr $end
$var wire 1 / rs $end
$var wire 1 0 rw $end
$var wire 1 1 sampler $end
$scope module i1 $end
$var wire 1 2 gnd $end
$var wire 1 3 vcc $end
$var wire 1 4 unknown $end
$var tri1 1 5 devclrn $end
$var tri1 1 6 devpor $end
$var tri1 1 7 devoe $end
$var wire 1 8 U0|LessThan0~7_combout $end
$var wire 1 9 U0|LessThan4~0_combout $end
$var wire 1 : U0|LessThan4~1_combout $end
$var wire 1 ; U0|LessThan4~2_combout $end
$var wire 1 < U0|Selector46~5_combout $end
$var wire 1 = U0|LessThan6~0_combout $end
$var wire 1 > U0|LessThan5~0_combout $end
$var wire 1 ? U0|LessThan5~1_combout $end
$var wire 1 @ U0|LessThan5~2_combout $end
$var wire 1 A U0|Selector46~6_combout $end
$var wire 1 B U0|rw~1_combout $end
$var wire 1 C LessThan0~0_combout $end
$var wire 1 D U0|state~11_combout $end
$var wire 1 E U0|clk_count[3]~3_combout $end
$var wire 1 F U0|Selector18~0_combout $end
$var wire 1 G U0|Selector7~0_combout $end
$var wire 1 H U0|Selector2~0_combout $end
$var wire 1 I U0|Selector43~6_combout $end
$var wire 1 J clk~combout $end
$var wire 1 K clk~clkctrl_outclk $end
$var wire 1 L process_0~0_combout $end
$var wire 1 M lcd_enable~regout $end
$var wire 1 N U0|Selector24~0_combout $end
$var wire 1 O U0|Add0~0_combout $end
$var wire 1 P U0|Selector32~0_combout $end
$var wire 1 Q U0|Add0~1 $end
$var wire 1 R U0|Add0~2_combout $end
$var wire 1 S U0|Selector31~0_combout $end
$var wire 1 T U0|Add0~3 $end
$var wire 1 U U0|Add0~4_combout $end
$var wire 1 V U0|Selector30~0_combout $end
$var wire 1 W U0|Add0~5 $end
$var wire 1 X U0|Add0~6_combout $end
$var wire 1 Y U0|Selector29~0_combout $end
$var wire 1 Z U0|Add0~7 $end
$var wire 1 [ U0|Add0~8_combout $end
$var wire 1 \ U0|Selector28~0_combout $end
$var wire 1 ] U0|Add0~9 $end
$var wire 1 ^ U0|Add0~10_combout $end
$var wire 1 _ U0|Selector27~0_combout $end
$var wire 1 ` U0|Add0~11 $end
$var wire 1 a U0|Add0~12_combout $end
$var wire 1 b U0|Selector26~0_combout $end
$var wire 1 c U0|Add0~13 $end
$var wire 1 d U0|Add0~14_combout $end
$var wire 1 e U0|Selector25~0_combout $end
$var wire 1 f U0|Add0~15 $end
$var wire 1 g U0|Add0~16_combout $end
$var wire 1 h U0|LessThan6~1_combout $end
$var wire 1 i U0|LessThan6~2_combout $end
$var wire 1 j U0|Selector17~0_combout $end
$var wire 1 k U0|Add0~25 $end
$var wire 1 l U0|Add0~26_combout $end
$var wire 1 m U0|Selector19~0_combout $end
$var wire 1 n U0|Add0~27 $end
$var wire 1 o U0|Add0~29 $end
$var wire 1 p U0|Add0~30_combout $end
$var wire 1 q U0|Add0~28_combout $end
$var wire 1 r U0|Add0~31 $end
$var wire 1 s U0|Add0~32_combout $end
$var wire 1 t U0|LessThan8~0_combout $end
$var wire 1 u U0|Selector23~0_combout $end
$var wire 1 v U0|Add0~17 $end
$var wire 1 w U0|Add0~18_combout $end
$var wire 1 x U0|Add0~19 $end
$var wire 1 y U0|Add0~20_combout $end
$var wire 1 z U0|LessThan1~0_combout $end
$var wire 1 { U0|LessThan6~3_combout $end
$var wire 1 | U0|LessThan8~1_combout $end
$var wire 1 } U0|LessThan8~2_combout $end
$var wire 1 ~ U0|LessThan7~5_combout $end
$var wire 1 !! U0|LessThan7~6_combout $end
$var wire 1 "! reset~combout $end
$var wire 1 #! U0|Selector3~0_combout $end
$var wire 1 $! U0|Add0~55 $end
$var wire 1 %! U0|Add0~57 $end
$var wire 1 &! U0|Add0~59 $end
$var wire 1 '! U0|Add0~61 $end
$var wire 1 (! U0|Add0~62_combout $end
$var wire 1 )! U0|rw~2_combout $end
$var wire 1 *! U0|Selector1~1_combout $end
$var wire 1 +! U0|Add0~33 $end
$var wire 1 ,! U0|Add0~34_combout $end
$var wire 1 -! U0|Selector15~0_combout $end
$var wire 1 .! U0|Add0~35 $end
$var wire 1 /! U0|Add0~36_combout $end
$var wire 1 0! U0|Selector14~0_combout $end
$var wire 1 1! U0|Add0~37 $end
$var wire 1 2! U0|Add0~38_combout $end
$var wire 1 3! U0|Selector13~0_combout $end
$var wire 1 4! U0|Add0~39 $end
$var wire 1 5! U0|Add0~40_combout $end
$var wire 1 6! U0|Selector12~0_combout $end
$var wire 1 7! U0|LessThan0~0_combout $end
$var wire 1 8! U0|Selector16~0_combout $end
$var wire 1 9! U0|LessThan0~1_combout $end
$var wire 1 :! U0|LessThan0~2_combout $end
$var wire 1 ;! U0|Add0~22_combout $end
$var wire 1 <! U0|Selector21~0_combout $end
$var wire 1 =! U0|LessThan0~3_combout $end
$var wire 1 >! U0|LessThan0~4_combout $end
$var wire 1 ?! U0|LessThan0~5_combout $end
$var wire 1 @! U0|LessThan0~6_combout $end
$var wire 1 A! U0|LessThan0~10_combout $end
$var wire 1 B! U0|state~14_combout $end
$var wire 1 C! U0|state.power_up~regout $end
$var wire 1 D! U0|LessThan3~3_combout $end
$var wire 1 E! U0|LessThan8~4_combout $end
$var wire 1 F! U0|LessThan8~5_combout $end
$var wire 1 G! U0|Add0~60_combout $end
$var wire 1 H! U0|Selector11~0_combout $end
$var wire 1 I! U0|Add0~41 $end
$var wire 1 J! U0|Add0~42_combout $end
$var wire 1 K! U0|Selector10~0_combout $end
$var wire 1 L! U0|Add0~43 $end
$var wire 1 M! U0|Add0~45 $end
$var wire 1 N! U0|Add0~46_combout $end
$var wire 1 O! U0|Add0~44_combout $end
$var wire 1 P! U0|LessThan7~1_combout $end
$var wire 1 Q! U0|Add0~58_combout $end
$var wire 1 R! U0|Add0~56_combout $end
$var wire 1 S! U0|busy~4_combout $end
$var wire 1 T! U0|Add0~50_combout $end
$var wire 1 U! U0|Add0~52_combout $end
$var wire 1 V! U0|LessThan7~2_combout $end
$var wire 1 W! U0|LessThan7~3_combout $end
$var wire 1 X! U0|LessThan8~6_combout $end
$var wire 1 Y! U0|clk_count[3]~2_combout $end
$var wire 1 Z! U0|clk_count[3]~4_combout $end
$var wire 1 [! U0|Selector9~0_combout $end
$var wire 1 \! U0|Add0~47 $end
$var wire 1 ]! U0|Add0~48_combout $end
$var wire 1 ^! U0|Selector8~0_combout $end
$var wire 1 _! U0|Add0~49 $end
$var wire 1 `! U0|Add0~51 $end
$var wire 1 a! U0|Add0~53 $end
$var wire 1 b! U0|Add0~54_combout $end
$var wire 1 c! U0|Selector5~0_combout $end
$var wire 1 d! U0|Selector4~0_combout $end
$var wire 1 e! U0|LessThan0~9_combout $end
$var wire 1 f! U0|LessThan9~2_combout $end
$var wire 1 g! U0|LessThan9~3_combout $end
$var wire 1 h! U0|LessThan9~4_combout $end
$var wire 1 i! U0|LessThan9~5_combout $end
$var wire 1 j! U0|state~13_combout $end
$var wire 1 k! U0|state.send~regout $end
$var wire 1 l! U0|Selector1~0_combout $end
$var wire 1 m! U0|Selector44~0_combout $end
$var wire 1 n! U0|LessThan7~0_combout $end
$var wire 1 o! U0|LessThan7~4_combout $end
$var wire 1 p! U0|LessThan3~4_combout $end
$var wire 1 q! U0|LessThan3~5_combout $end
$var wire 1 r! U0|LessThan3~6_combout $end
$var wire 1 s! U0|LessThan3~2_combout $end
$var wire 1 t! U0|state~6_combout $end
$var wire 1 u! U0|state~7_combout $end
$var wire 1 v! U0|busy~7_combout $end
$var wire 1 w! U0|state~12_combout $end
$var wire 1 x! U0|state.initialize~regout $end
$var wire 1 y! U0|clk_count[3]~0_combout $end
$var wire 1 z! U0|clk_count[3]~1_combout $end
$var wire 1 {! U0|Selector22~0_combout $end
$var wire 1 |! U0|Add0~21 $end
$var wire 1 }! U0|Add0~23 $end
$var wire 1 ~! U0|Add0~24_combout $end
$var wire 1 !" U0|Selector20~0_combout $end
$var wire 1 "" U0|LessThan9~0_combout $end
$var wire 1 #" U0|Selector6~0_combout $end
$var wire 1 $" U0|LessThan0~8_combout $end
$var wire 1 %" U0|LessThan9~1_combout $end
$var wire 1 &" U0|state~8_combout $end
$var wire 1 '" U0|state~9_combout $end
$var wire 1 (" U0|state~10_combout $end
$var wire 1 )" U0|state.ready~regout $end
$var wire 1 *" char[1]~5_combout $end
$var wire 1 +" U0|busy~regout $end
$var wire 1 ," char[5]~15_combout $end
$var wire 1 -" char[1]~6 $end
$var wire 1 ." char[2]~8 $end
$var wire 1 /" char[3]~9_combout $end
$var wire 1 0" char[3]~10 $end
$var wire 1 1" char[4]~11_combout $end
$var wire 1 2" char[4]~12 $end
$var wire 1 3" char[5]~13_combout $end
$var wire 1 4" char[0]~16_combout $end
$var wire 1 5" char[2]~7_combout $end
$var wire 1 6" U0|Selector37~0_combout $end
$var wire 1 7" U0|rw~0_combout $end
$var wire 1 8" U0|rw~regout $end
$var wire 1 9" U0|Selector36~0_combout $end
$var wire 1 :" U0|rs~feeder_combout $end
$var wire 1 ;" U0|rs~regout $end
$var wire 1 <" U0|Selector46~0_combout $end
$var wire 1 =" U0|LessThan10~3_combout $end
$var wire 1 >" U0|LessThan9~6_combout $end
$var wire 1 ?" U0|LessThan12~0_combout $end
$var wire 1 @" U0|LessThan12~1_combout $end
$var wire 1 A" U0|LessThan12~2_combout $end
$var wire 1 B" U0|LessThan10~0_combout $end
$var wire 1 C" U0|Selector46~3_combout $end
$var wire 1 D" U0|LessThan10~1_combout $end
$var wire 1 E" U0|LessThan10~2_combout $end
$var wire 1 F" U0|Selector46~1_combout $end
$var wire 1 G" U0|LessThan11~0_combout $end
$var wire 1 H" U0|LessThan11~1_combout $end
$var wire 1 I" U0|Selector46~2_combout $end
$var wire 1 J" U0|Selector46~4_combout $end
$var wire 1 K" U0|LessThan8~3_combout $end
$var wire 1 L" U0|LessThan7~7_combout $end
$var wire 1 M" U0|Selector46~8_combout $end
$var wire 1 N" U0|LessThan4~3_combout $end
$var wire 1 O" U0|busy~8_combout $end
$var wire 1 P" U0|Selector46~7_combout $end
$var wire 1 Q" U0|Selector46~9_combout $end
$var wire 1 R" U0|LessThan2~0_combout $end
$var wire 1 S" U0|LessThan2~1_combout $end
$var wire 1 T" U0|LessThan2~2_combout $end
$var wire 1 U" U0|LessThan3~7_combout $end
$var wire 1 V" U0|Selector43~2_combout $end
$var wire 1 W" U0|LessThan7~8_combout $end
$var wire 1 X" U0|LessThan1~1_combout $end
$var wire 1 Y" U0|LessThan1~2_combout $end
$var wire 1 Z" U0|Selector46~10_combout $end
$var wire 1 [" U0|Selector46~11_combout $end
$var wire 1 \" U0|Selector46~12_combout $end
$var wire 1 ]" U0|e~regout $end
$var wire 1 ^" U0|Selector45~4_combout $end
$var wire 1 _" U0|busy~5_combout $end
$var wire 1 `" U0|busy~6_combout $end
$var wire 1 a" U0|Selector45~2_combout $end
$var wire 1 b" U0|LessThan5~3_combout $end
$var wire 1 c" U0|Selector45~3_combout $end
$var wire 1 d" U0|lcd_data[5]~0_combout $end
$var wire 1 e" U0|LessThan7~9_combout $end
$var wire 1 f" U0|Selector44~3_combout $end
$var wire 1 g" U0|Selector44~2_combout $end
$var wire 1 h" U0|Selector44~4_combout $end
$var wire 1 i" U0|LessThan2~3_combout $end
$var wire 1 j" U0|Selector43~3_combout $end
$var wire 1 k" U0|Selector44~1_combout $end
$var wire 1 l" U0|Selector43~4_combout $end
$var wire 1 m" U0|Selector43~5_combout $end
$var wire 1 n" U0|Selector42~2_combout $end
$var wire 1 o" U0|Selector41~2_combout $end
$var wire 1 p" U0|Selector41~3_combout $end
$var wire 1 q" U0|Selector41~4_combout $end
$var wire 1 r" U0|Selector40~2_combout $end
$var wire 1 s" U0|Selector39~0_combout $end
$var wire 1 t" U0|Selector38~0_combout $end
$var wire 1 u" ledr~0_combout $end
$var wire 1 v" ledr~reg0_regout $end
$var wire 1 w" U0|lcd_data [7] $end
$var wire 1 x" U0|lcd_data [6] $end
$var wire 1 y" U0|lcd_data [5] $end
$var wire 1 z" U0|lcd_data [4] $end
$var wire 1 {" U0|lcd_data [3] $end
$var wire 1 |" U0|lcd_data [2] $end
$var wire 1 }" U0|lcd_data [1] $end
$var wire 1 ~" U0|lcd_data [0] $end
$var wire 1 !# U0|clk_count [31] $end
$var wire 1 "# U0|clk_count [30] $end
$var wire 1 ## U0|clk_count [29] $end
$var wire 1 $# U0|clk_count [28] $end
$var wire 1 %# U0|clk_count [27] $end
$var wire 1 &# U0|clk_count [26] $end
$var wire 1 '# U0|clk_count [25] $end
$var wire 1 (# U0|clk_count [24] $end
$var wire 1 )# U0|clk_count [23] $end
$var wire 1 *# U0|clk_count [22] $end
$var wire 1 +# U0|clk_count [21] $end
$var wire 1 ,# U0|clk_count [20] $end
$var wire 1 -# U0|clk_count [19] $end
$var wire 1 .# U0|clk_count [18] $end
$var wire 1 /# U0|clk_count [17] $end
$var wire 1 0# U0|clk_count [16] $end
$var wire 1 1# U0|clk_count [15] $end
$var wire 1 2# U0|clk_count [14] $end
$var wire 1 3# U0|clk_count [13] $end
$var wire 1 4# U0|clk_count [12] $end
$var wire 1 5# U0|clk_count [11] $end
$var wire 1 6# U0|clk_count [10] $end
$var wire 1 7# U0|clk_count [9] $end
$var wire 1 8# U0|clk_count [8] $end
$var wire 1 9# U0|clk_count [7] $end
$var wire 1 :# U0|clk_count [6] $end
$var wire 1 ;# U0|clk_count [5] $end
$var wire 1 <# U0|clk_count [4] $end
$var wire 1 =# U0|clk_count [3] $end
$var wire 1 ># U0|clk_count [2] $end
$var wire 1 ?# U0|clk_count [1] $end
$var wire 1 @# U0|clk_count [0] $end
$var wire 1 A# U1|altsyncram_component|auto_generated|q_a [9] $end
$var wire 1 B# U1|altsyncram_component|auto_generated|q_a [8] $end
$var wire 1 C# U1|altsyncram_component|auto_generated|q_a [7] $end
$var wire 1 D# U1|altsyncram_component|auto_generated|q_a [6] $end
$var wire 1 E# U1|altsyncram_component|auto_generated|q_a [5] $end
$var wire 1 F# U1|altsyncram_component|auto_generated|q_a [4] $end
$var wire 1 G# U1|altsyncram_component|auto_generated|q_a [3] $end
$var wire 1 H# U1|altsyncram_component|auto_generated|q_a [2] $end
$var wire 1 I# U1|altsyncram_component|auto_generated|q_a [1] $end
$var wire 1 J# U1|altsyncram_component|auto_generated|q_a [0] $end
$var wire 1 K# char [5] $end
$var wire 1 L# char [4] $end
$var wire 1 M# char [3] $end
$var wire 1 N# char [2] $end
$var wire 1 O# char [1] $end
$var wire 1 P# char [0] $end
$var wire 1 Q# U1|altsyncram_component|auto_generated|ram_block1a0_PORTADATAOUT_bus [9] $end
$var wire 1 R# U1|altsyncram_component|auto_generated|ram_block1a0_PORTADATAOUT_bus [8] $end
$var wire 1 S# U1|altsyncram_component|auto_generated|ram_block1a0_PORTADATAOUT_bus [7] $end
$var wire 1 T# U1|altsyncram_component|auto_generated|ram_block1a0_PORTADATAOUT_bus [6] $end
$var wire 1 U# U1|altsyncram_component|auto_generated|ram_block1a0_PORTADATAOUT_bus [5] $end
$var wire 1 V# U1|altsyncram_component|auto_generated|ram_block1a0_PORTADATAOUT_bus [4] $end
$var wire 1 W# U1|altsyncram_component|auto_generated|ram_block1a0_PORTADATAOUT_bus [3] $end
$var wire 1 X# U1|altsyncram_component|auto_generated|ram_block1a0_PORTADATAOUT_bus [2] $end
$var wire 1 Y# U1|altsyncram_component|auto_generated|ram_block1a0_PORTADATAOUT_bus [1] $end
$var wire 1 Z# U1|altsyncram_component|auto_generated|ram_block1a0_PORTADATAOUT_bus [0] $end
$upscope $end
$upscope $end
$enddefinitions $end
#0
$dumpvars
0!
1"
0#
1$
0,
0+
0*
0)
0(
0'
0&
0%
1-
0.
0/
00
x1
02
13
x4
15
16
17
18
19
1:
1;
0<
1=
1>
1?
1@
0A
0B
1C
0D
0E
0F
0G
0H
0I
0J
0K
0L
0M
0N
1O
1P
0Q
0R
0S
1T
0U
0V
0W
0X
0Y
1Z
0[
0\
0]
0^
0_
1`
0a
0b
0c
0d
0e
1f
0g
1h
1i
0j
0k
0l
0m
1n
0o
0p
0q
1r
0s
0t
0u
0v
0w
1x
0y
1z
0{
0|
0}
1~
1!!
1"!
0#!
1$!
0%!
1&!
0'!
0(!
1)!
0*!
0+!
0,!
0-!
1.!
0/!
00!
01!
02!
03!
14!
05!
06!
17!
08!
19!
1:!
0;!
0<!
1=!
0>!
0?!
1@!
1A!
0B!
0C!
0D!
1E!
1F!
0G!
0H!
0I!
0J!
0K!
1L!
0M!
0N!
0O!
1P!
0Q!
0R!
1S!
0T!
0U!
1V!
1W!
1X!
0Y!
0Z!
0[!
1\!
0]!
0^!
0_!
1`!
0a!
0b!
0c!
0d!
1e!
1f!
1g!
1h!
1i!
0j!
0k!
0l!
0m!
1n!
1o!
1p!
0q!
1r!
1s!
1t!
1u!
0v!
0w!
0x!
0y!
1z!
0{!
0|!
1}!
0~!
0!"
1""
0#"
1$"
1%"
0&"
0'"
0("
0)"
0*"
0+"
0,"
0-"
1."
0/"
00"
01"
12"
03"
04"
05"
06"
07"
08"
09"
0:"
0;"
0<"
1="
1>"
1?"
1@"
1A"
1B"
0C"
0D"
1E"
0F"
1G"
1H"
0I"
0J"
0K"
1L"
1M"
1N"
1O"
1P"
0Q"
1R"
1S"
1T"
1U"
0V"
0W"
1X"
1Y"
1Z"
0["
0\"
0]"
0^"
1_"
1`"
0a"
1b"
0c"
0d"
1e"
0f"
0g"
0h"
1i"
0j"
0k"
1l"
0m"
0n"
1o"
1p"
1q"
1r"
0s"
0t"
0u"
0v"
0~"
0}"
0|"
0{"
0z"
0y"
0x"
0w"
0@#
0?#
0>#
0=#
0<#
0;#
0:#
09#
08#
07#
06#
05#
04#
03#
02#
01#
00#
0/#
0.#
0-#
0,#
0+#
0*#
0)#
0(#
0'#
0&#
0%#
0$#
0##
0"#
0!#
0J#
0I#
0H#
0G#
0F#
0E#
0D#
0C#
0B#
0A#
0P#
0O#
0N#
0M#
0L#
0K#
0Z#
0Y#
0X#
0W#
0V#
0U#
0T#
0S#
0R#
0Q#
$end
#10000
1!
1J
1K
01
1@#
1Q
0O
1R
0P
1S
#20000
0!
0J
0K
11
#30000
1!
1J
1K
01
1?#
0@#
0T
0R
0Q
1O
1U
0S
1T
1R
1P
0h
1V
0=
0U
1S
0i
1h
0V
1=
1i
#40000
0!
0J
0K
11
#50000
1!
1J
1K
01
1@#
1Q
0O
0T
0R
0P
1U
0S
0h
1V
0=
0i
#60000
0!
0J
0K
11
#70000
1!
1J
1K
01
1>#
0?#
0@#
0f!
1W
0U
1T
1R
0Q
1O
1X
1h
0V
1=
0W
1U
1S
0R
1P
0h
1Y
0=
1i
0X
1V
0S
0i
0Y
#80000
0!
0J
0K
11
#90000
1!
1J
1K
01
1@#
1Q
0O
1R
0P
1S
#100000
0!
0J
0K
11
#110000
1!
1J
1K
01
1?#
0@#
0T
0R
0Q
1O
1W
0U
0S
1T
1R
1P
1X
1h
0V
1=
0W
1U
1S
0h
1Y
0=
1i
0X
1V
0i
0Y
#120000
0!
0J
0K
11
#130000
1!
1J
1K
01
1@#
1Q
0O
0T
0R
0P
1W
0U
0S
1X
1h
0V
1=
0h
1Y
0=
1i
0i
#140000
0!
0J
0K
11
#150000
1!
1J
1K
01
1=#
0>#
0?#
0@#
0>"
0Z
0X
0W
1U
1T
1R
0Q
1O
1[
0Y
1Z
1X
1V
0U
1S
0R
1P
1\
0[
1Y
0V
0S
0\
#160000
0!
0J
0K
11
#170000
1!
1J
1K
01
1@#
1Q
0O
1R
0P
1S
#180000
0!
0J
0K
11
#190000
1!
1J
1K
01
1?#
0@#
0T
0R
0Q
1O
1U
0S
1T
1R
1P
1V
0U
1S
0V
#200000
0!
0J
0K
11
#210000
1!
1J
1K
01
1@#
1Q
0O
0T
0R
0P
1U
0S
1V
#220000
0!
0J
0K
11
#230000
1!
1J
1K
01
1>#
0?#
0@#
1W
0U
1T
1R
0Q
1O
0Z
0X
0V
0W
1U
1S
0R
1P
1[
0Y
1Z
1X
1V
0S
1\
0[
1Y
0\
#240000
0!
0J
0K
11
#250000
1!
1J
1K
01
1@#
1Q
0O
1R
0P
1S
#260000
0!
0J
0K
11
#270000
1!
1J
1K
01
1?#
0@#
0T
0R
0Q
1O
1W
0U
0S
1T
1R
1P
0Z
0X
0V
0W
1U
1S
1[
0Y
1Z
1X
1V
1\
0[
1Y
0\
#280000
0!
0J
0K
11
#290000
1!
1J
1K
01
1@#
1Q
0O
0T
0R
0P
1W
0U
0S
0Z
0X
0V
1[
1h
0Y
1=
0h
1\
0=
1i
0i
#300000
0!
0J
0K
11
#310000
1!
1J
1K
01
1<#
0=#
0>#
0?#
0@#
1]
0[
1Z
1X
0W
1U
1T
1R
0Q
1O
1^
0\
0]
1[
1Y
0X
1V
0U
1S
0R
1P
0p!
1|
1_
0^
1\
0Y
0V
0S
1p!
0|
0_
#320000
0!
0J
0K
11
#330000
1!
1J
1K
01
1@#
1Q
0O
1R
0P
1S
#340000
0!
0J
0K
11
#350000
1!
1J
1K
01
1?#
0@#
0T
0R
0Q
1O
1U
0S
1T
1R
1P
1V
0U
1S
0V
#360000
0!
0J
0K
11
#370000
1!
1J
1K
01
1@#
1Q
0O
0T
0R
0P
1U
0S
1V
#380000
0!
0J
0K
11
#390000
1!
1J
1K
01
1>#
0?#
0@#
1W
0U
1T
1R
0Q
1O
1X
0V
0W
1U
1S
0R
1P
1Y
0X
1V
0S
0Y
#400000
0!
0J
0K
11
#410000
1!
1J
1K
01
1@#
1Q
0O
1R
0P
1S
#420000
0!
0J
0K
11
#430000
1!
1J
1K
01
1?#
0@#
0T
0R
0Q
1O
1W
0U
0S
1T
1R
1P
1X
0V
0W
1U
1S
1Y
0X
1V
0Y
#440000
0!
0J
0K
11
#450000
1!
1J
1K
01
1@#
1Q
0O
0T
0R
0P
1W
0U
0S
1X
0V
1Y
#460000
0!
0J
0K
11
#470000
1!
1J
1K
01
1=#
0>#
0?#
0@#
0Z
0X
0W
1U
1T
1R
0Q
1O
1]
0[
0Y
1Z
1X
1V
0U
1S
0R
1P
1^
0\
0]
1[
1Y
0V
0S
0R"
0p!
1|
1_
0^
1\
1R"
1p!
0|
0_
#480000
0!
0J
0K
11
#490000
1!
1J
1K
01
1@#
1Q
0O
1R
0P
1S
#500000
0!
0J
0K
11
#510000
1!
1J
1K
01
1?#
0@#
0T
0R
0Q
1O
1U
0S
1T
1R
1P
1V
0U
1S
0V
#520000
0!
0J
0K
11
#530000
1!
1J
1K
01
1@#
1Q
0O
0T
0R
0P
1U
0S
1V
#540000
0!
0J
0K
11
#550000
1!
1J
1K
01
1>#
0?#
0@#
1W
0U
1T
1R
0Q
1O
0Z
0X
0V
0W
1U
1S
0R
1P
1]
0[
0Y
1Z
1X
1V
0S
1^
0\
0]
1[
1Y
0R"
0p!
1|
1_
0^
1\
1R"
1p!
0|
0_
#560000
0!
0J
0K
11
#570000
1!
1J
1K
01
1@#
1Q
0O
1R
0P
1S
#580000
0!
0J
0K
11
#590000
1!
1J
1K
01
1?#
0@#
0T
0R
0Q
1O
1W
0U
0S
1T
1R
1P
0Z
0X
0V
0W
1U
1S
1]
0[
0Y
1Z
1X
1V
1^
0\
0]
1[
1Y
0R"
0p!
1|
1_
0^
1\
1R"
1p!
0|
0_
#600000
0!
0J
0K
11
#610000
1!
1J
1K
01
1@#
1Q
0O
0T
0R
0P
1W
0U
0S
0Z
0X
0V
1]
0[
0Y
1^
1h
0\
1=
0h
1_
1i
0i
#620000
0!
0J
0K
11
#630000
1!
1J
1K
01
1;#
0<#
0=#
0>#
0?#
0@#
0`
0^
0]
1[
1Z
1X
0W
1U
1T
1R
0Q
1O
1a
0_
1`
1^
1\
0=
0[
1Y
0X
1V
0U
1S
0R
1P
0R"
1b
0>
0a
1_
0\
1=
0Y
0V
0S
1R"
0b
1>
#640000
0!
0J
0K
11
#650000
1!
1J
1K
01
1@#
1Q
0O
1R
0P
1S
#660000
0!
0J
0K
11
#670000
1!
1J
1K
01
1?#
0@#
0T
0R
0Q
1O
1U
0S
1T
1R
1P
1V
0=
0U
1S
0V
1=
#680000
0!
0J
0K
11
#690000
1!
1J
1K
01
1@#
1Q
0O
0T
0R
0P
1U
0S
1V
0=
#700000
0!
0J
0K
11
#710000
1!
1J
1K
01
1>#
0?#
0@#
1W
0U
1T
1R
0Q
1O
1X
0V
1=
0W
1U
1S
0R
1P
0p!
1Y
0=
0X
1V
0S
1p!
0Y
#720000
0!
0J
0K
11
#730000
1!
1J
1K
01
1@#
1Q
0O
1R
0P
1S
#740000
0!
0J
0K
11
#750000
1!
1J
1K
01
1?#
0@#
0T
0R
0Q
1O
1W
0U
0S
1T
1R
1P
1X
0V
1=
0W
1U
1S
0p!
1Y
0=
0X
1V
1p!
0Y
#760000
0!
0J
0K
11
#770000
1!
1J
1K
01
1@#
1Q
0O
0T
0R
0P
1W
0U
0S
1X
0V
1=
1Y
0=
#780000
0!
0J
0K
11
#790000
1!
1J
1K
01
1=#
0>#
0?#
0@#
0Z
0X
0W
1U
1T
1R
0Q
1O
1[
0Y
1Z
1X
1V
0U
1S
0R
1P
0R"
0p!
1|
1\
0[
1Y
0V
0S
1R"
1p!
0|
0\
#800000
0!
0J
0K
11
#810000
1!
1J
1K
01
1@#
1Q
0O
1R
0P
1S
#820000
0!
0J
0K
11
#830000
1!
1J
1K
01
1?#
0@#
0T
0R
0Q
1O
1U
0S
1T
1R
1P
0p!
1V
0U
1S
1p!
0V
#840000
0!
0J
0K
11
#850000
1!
1J
1K
01
1@#
1Q
0O
0T
0R
0P
1U
0S
0p!
1V
#860000
0!
0J
0K
11
#870000
1!
1J
1K
01
1>#
0?#
0@#
1W
0U
1T
1R
0Q
1O
0Z
0X
1p!
0V
0W
1U
1S
0R
1P
1[
0Y
1Z
1X
1V
0S
0R"
0p!
1|
1\
0[
1Y
1R"
0|
0\
#880000
0!
0J
0K
11
#890000
1!
1J
1K
01
1@#
1Q
0O
1R
0P
1S
#900000
0!
0J
0K
11
#910000
1!
1J
1K
01
1?#
0@#
0T
0R
0Q
1O
1W
0U
0S
1T
1R
1P
0Z
0X
1p!
0V
0W
1U
1S
1[
0Y
1Z
1X
1V
0R"
0p!
1|
1\
0[
1Y
1R"
0|
0\
#920000
0!
0J
0K
11
#930000
1!
1J
1K
01
1@#
1Q
0O
0T
0R
0P
1W
0U
0S
0Z
0X
1p!
0V
1[
0Y
1=
0p!
1|
1\
0=
#940000
0!
0J
0K
11
#950000
1!
1J
1K
01
1<#
0=#
0>#
0?#
0@#
1D"
1]
0[
1Z
1X
0W
1U
1T
1R
0Q
1O
0`
0^
0|
0\
0]
1[
1Y
0X
1V
0U
1S
0R
1P
1a
1p!
0_
1`
1^
1\
0Y
0V
0S
0R"
1b
0>
09
0a
0p!
1|
1_
1R"
0b
1>
19
#960000
0!
0J
0K
11
#970000
1!
1J
1K
01
1@#
1Q
0O
1R
0P
1S
#980000
0!
0J
0K
11
#990000
1!
1J
1K
01
1?#
0@#
0E"
0T
0R
0Q
1O
1F"
1U
0S
1T
1R
1P
1I"
1V
0U
1S
0V
#1000000
0!
0J
0K
11
#1010000
1!
1J
1K
01
1@#
1Q
0O
0T
0R
0P
1U
0S
1V
#1020000
0!
0J
0K
11
#1030000
1!
1J
1K
01
1>#
0?#
0@#
1W
0U
1T
1R
0Q
1O
1X
0V
0W
1U
1S
0R
1P
0R"
1Y
0X
1V
0S
1R"
0Y
#1040000
0!
0J
0K
11
#1050000
1!
1J
1K
01
1@#
1Q
0O
1R
0P
1S
#1060000
0!
0J
0K
11
#1070000
1!
1J
1K
01
1?#
0@#
0T
0R
0Q
1O
1W
0U
0S
1T
1R
1P
1X
0V
0W
1U
1S
0R"
1Y
0X
1V
1R"
0Y
#1080000
0!
0J
0K
11
#1090000
1!
1J
1K
01
1@#
1Q
0O
0T
0R
0P
1W
0U
0S
1X
0V
0R"
1Y
#1100000
0!
0J
0K
11
#1110000
1!
1J
1K
01
1=#
0>#
0?#
0@#
0Z
0X
0W
1U
1T
1R
0Q
1O
1]
0[
1R"
0Y
1Z
1X
1V
0U
1S
0R
1P
0`
0^
1p!
0|
0\
0]
1[
1Y
0V
0S
1a
0_
1`
1^
1\
0R"
1b
0>
09
0a
0p!
1|
1_
0b
1>
19
#1120000
0!
0J
0K
11
#1130000
1!
1J
1K
01
1@#
1Q
0O
1R
0P
1S
#1140000
0!
0J
0K
11
#1150000
1!
1J
1K
01
1?#
0@#
0T
0R
0Q
1O
1U
0S
1T
1R
1P
1V
0U
1S
0V
#1160000
0!
0J
0K
11
#1170000
1!
1J
1K
01
1@#
1Q
0O
0T
0R
0P
1U
0S
1V
#1180000
0!
0J
0K
11
